…
tidy_books <- original_books %>%
  unnest_tokens(word, text)

data(stop_words)

tidy_books <- tidy_books %>%
  anti_join(stop_words)

## Joining, by = "word"

tidy_books %>%
  group_by(book) %>% 
  count(word, sort = TRUE) 

## # A tibble: 37,224 × 3
## # Groups:   book [6]
##    book                word          n
##    <fct>               <chr>     <int>
##  1 Mansfield Park      fanny       816
##  2 Emma                emma        786
##  3 Sense & Sensibility elinor      623
##  4 Emma                miss        599
##  5 Pride & Prejudice   elizabeth   597
##  6 Mansfield Park      crawford    493
##  7 Sense & Sensibility marianne    492
##  8 Persuasion          anne        447
##  9 Mansfield Park      miss        432
## 10 Northanger Abbey    catherine   428
## # … with 37,214 more rows
…
<img src="{{< blogdown/postref >}}index_files/figure-html/unnamed-chunk-9-1.png" width="672" />
# Chapter 2

One way to analyze the sentiment of a text is to consider the text as a combination of its individual words and the sentiment content of the whole text as the sum of the sentiment content of the individual words.

get_sentiments("afinn")

## # A tibble: 2,477 × 2
##    word       value
##    <chr>      <dbl>
##  1 abandon       -2
##  2 abandoned     -2
##  3 abandons      -2
##  4 abducted      -2
##  5 abduction     -2
##  6 abductions    -2
##  7 abhor         -3
##  8 abhorred      -3
##  9 abhorrent     -3
## 10 abhors        -3
## # … with 2,467 more rows
…
nrc_joy <- get_sentiments("nrc") %>% 
  filter(sentiment == "joy")

tidy_books %>%
  filter(book == "Emma") %>%
  inner_join(nrc_joy) %>%
  count(word, sort = TRUE)

## Joining, by = "word"

## # A tibble: 301 × 2
##    word          n
##    <chr>     <int>
##  1 good        359
##  2 friend      166
##  3 hope        143
##  4 happy       125
##  5 love        117
##  6 deal         92
##  7 found        92
##  8 present      89
##  9 kind         82
## 10 happiness    76
## # … with 291 more rows
…
